…
## What is mean total number of steps taken per day?


```r
totalStepsPerDay <- activity %>%
    na.omit() %>%
    group_by(date = as.Date(date)) %>%
    summarise(TotalSteps = sum(steps, na.rm = TRUE))
totalStepsPerDay
```

```
## # A tibble: 53 x 2
##    date       TotalSteps
##    <date>          <int>
##  1 2012-10-02        126
##  2 2012-10-03      11352
##  3 2012-10-04      12116
##  4 2012-10-05      13294
##  5 2012-10-06      15420
##  6 2012-10-07      11015
##  7 2012-10-09      12811
##  8 2012-10-10       9900
##  9 2012-10-11      10304
## 10 2012-10-12      17382
## # ... with 43 more rows
```
…
    Filling the missing values with the mean for that 5-minute interval

Create a new dataset that is equal to the original dataset but with the missing data filled in.


```r
replaceNA <- activity %>%
    group_by(interval) %>%
    mutate(steps = replace(steps, is.na(steps), mean(steps, na.rm = TRUE))) 
replaceNA
```

```
## # A tibble: 17,568 x 3
## # Groups:   interval [288]
##     steps date       interval
##     <dbl> <chr>         <int>
##  1 1.72   2012-10-01        0
##  2 0.340  2012-10-01        5
##  3 0.132  2012-10-01       10
##  4 0.151  2012-10-01       15
##  5 0.0755 2012-10-01       20
##  6 2.09   2012-10-01       25
##  7 0.528  2012-10-01       30
##  8 0.868  2012-10-01       35
##  9 0      2012-10-01       40
## 10 1.47   2012-10-01       45
## # ... with 17,558 more rows
```
…
Create a new factor variable in the dataset with two levels -- "weekday" and "weekend" indicating whether a given date is a weekday or weekend day.


```r
wdayData <- replaceNA %>%
    group_by(date = as.Date(date)) %>%
    mutate(wday = weekdays(date))

wdayData$wday <- replace(wdayData$wday, which(wdayData$wday == "Sunday" | wdayData$wday == "Saturday"), "Weekend")
wdayData$wday <- replace(wdayData$wday, which(wdayData$wday != "Weekend"), "Weekday")
wdayData
```

```
## # A tibble: 17,568 x 4
## # Groups:   date [61]
##     steps date       interval wday   
##     <dbl> <date>        <int> <chr>  
##  1 1.72   2012-10-01        0 Weekday
##  2 0.340  2012-10-01        5 Weekday
##  3 0.132  2012-10-01       10 Weekday
##  4 0.151  2012-10-01       15 Weekday
##  5 0.0755 2012-10-01       20 Weekday
##  6 2.09   2012-10-01       25 Weekday
##  7 0.528  2012-10-01       30 Weekday
##  8 0.868  2012-10-01       35 Weekday
##  9 0      2012-10-01       40 Weekday
## 10 1.47   2012-10-01       45 Weekday
## # ... with 17,558 more rows
```
…
